<?xml version="1.0" encoding="utf-8"?>
<!-- Generator: Adobe Illustrator 19.0.0, SVG Export Plug-In . SVG Version: 6.00 Build 0)  -->
<svg version="1.1" id="Ebene_1" xmlns:sketch="http://www.bohemiancoding.com/sketch/ns"
	 xmlns="http://www.w3.org/2000/svg" xmlns:xlink="http://www.w3.org/1999/xlink" x="0px" y="0px" viewBox="-275 367 60 60"
	 style="enable-background:new -275 367 60 60;" xml:space="preserve">
<style type="text/css">
	.st0{fill:#535353;}
</style>
<title>Parachute</title>
<desc>Created with Sketch.</desc>
<g>
	<g>
		<path class="st0" d="M-226.1,377.1c-5.2-5.2-12.1-8.1-19.4-8.1s-14.2,2.9-19.4,8.1c-5.2,5.2-8.1,12.1-8.1,19.4s2.9,14.2,8.1,19.4
			c5.2,5.2,12.1,8.1,19.4,8.1s14.2-2.9,19.4-8.1c5.2-5.2,8.1-12.1,8.1-19.4S-220.9,382.2-226.1,377.1z M-245.5,421.8
			c-14,0-25.3-11.4-25.3-25.3c0-14,11.4-25.3,25.3-25.3s25.3,11.4,25.3,25.3C-220.2,410.4-231.6,421.8-245.5,421.8z"/>
	</g>
</g>
<g>
	<g>
		<path class="st0" d="M-223.4,401c-0.6-0.1-1.2,0.2-1.3,0.8c-0.6,2.4-1.6,4.7-3,6.7c-0.3,0.5-0.2,1.2,0.3,1.5
			c0.2,0.1,0.4,0.2,0.6,0.2c0.4,0,0.7-0.2,0.9-0.5c1.5-2.3,2.7-4.8,3.3-7.4C-222.4,401.8-222.8,401.2-223.4,401z"/>
	</g>
</g>
<g>
	<g>
		<path class="st0" d="M-222.9,395.4c-0.6,0-1.1,0.5-1.1,1.1c0,0.3,0,0.6,0,0.9c0,0.6,0.4,1.1,1,1.1c0,0,0,0,0,0
			c0.6,0,1.1-0.5,1.1-1c0-0.3,0-0.7,0-1C-221.8,395.9-222.3,395.4-222.9,395.4z"/>
	</g>
</g>
<g>
	<g>
		<path class="st0" d="M-245.5,387.6c-2.1,0-3.8,1.7-3.8,3.8v19.1c0,2.1,1.7,3.8,3.8,3.8s3.8-1.7,3.8-3.8v-19.1
			C-241.7,389.3-243.4,387.6-245.5,387.6z M-243.9,410.5c0,0.9-0.7,1.6-1.6,1.6s-1.6-0.7-1.6-1.6v-19.1c0-0.9,0.7-1.6,1.6-1.6
			s1.6,0.7,1.6,1.6V410.5z"/>
	</g>
</g>
<g>
	<g>
		<path class="st0" d="M-242.8,379.8c-0.7-0.7-1.7-1.1-2.7-1.1c-1,0-2,0.4-2.7,1.1c-0.7,0.7-1.1,1.7-1.1,2.7c0,1,0.4,2,1.1,2.7
			c0.7,0.7,1.7,1.1,2.7,1.1c1,0,2-0.4,2.7-1.1c0.7-0.7,1.1-1.7,1.1-2.7C-241.7,381.5-242.1,380.5-242.8,379.8z M-244.3,383.7
			c-0.3,0.3-0.7,0.5-1.2,0.5c-0.4,0-0.9-0.2-1.2-0.5c-0.3-0.3-0.5-0.7-0.5-1.2c0-0.4,0.2-0.9,0.5-1.2c0.3-0.3,0.7-0.5,1.2-0.5
			c0.4,0,0.9,0.2,1.2,0.5c0.3,0.3,0.5,0.7,0.5,1.2C-243.9,383-244,383.4-244.3,383.7z"/>
	</g>
</g>
</svg>
